Division,WeightClassKg,Place,Name,Team,BodyweightKg,Best3SquatKg,Best3BenchKg,Best3DeadliftKg,TotalKg,Equipment,Event,Sex,BirthDate
Boys,51.71,1,Alex Le,Palacios,51.71,154.22,92.99,149.69,396.89,Single-ply,SBD,M,
Boys,51.71,2,Kolbe Murray,Bay City,50.8,117.93,61.23,136.08,315.25,Single-ply,SBD,M,
Boys,51.71,3,Cam Graves,Palacios,49.71,106.59,70.31,124.74,301.64,Single-ply,SBD,M,
Boys,51.71,DQ,Ethan Garcia,Louise,51.26,,,,,Single-ply,SBD,M,
Boys,51.71,DQ,Curtis Ledwig,Ganado,51.71,113.4,52.16,,,Single-ply,SBD,M,
Boys,55.79,1,Chad Faas,El Maton Tidehaven,55.38,113.4,79.38,127.01,319.78,Single-ply,SBD,M,
Boys,55.79,2,Canaan Allen,Bay City,52.25,99.79,63.5,127.01,290.3,Single-ply,SBD,M,
Boys,55.79,3,Trevor Lutringer,Louise,54.43,72.57,49.9,113.4,235.87,Single-ply,SBD,M,
Boys,59.87,1,Dustin Devore,Palacios,56.43,111.13,70.31,129.27,310.71,Single-ply,SBD,M,
Boys,59.87,DQ,Jessee Norwood,Needville,59.87,,,,,Single-ply,SBD,M,
Boys,59.87,DQ,Kenny Williams,Ganado,56.7,108.86,61.23,,,Single-ply,SBD,M,
Boys,59.87,DQ,Jordan Garcia #7,El Maton Tidehaven,59.42,158.76,,,,Single-ply,SBD,M,
Boys,67.13,1,Manny Calderon,Ganado,67.04,185.97,108.86,188.24,483.08,Single-ply,SBD,M,
Boys,67.13,2,Cain Hayden,Ganado,66.5,161.03,83.91,158.76,403.7,Single-ply,SBD,M,
Boys,67.13,3,Juan Almeda,Ganado,66.5,131.54,65.77,136.08,333.39,Single-ply,SBD,M,
Boys,67.13,4,Ronnie Kimball,Bay City,60.33,122.47,58.97,136.08,317.51,Single-ply,SBD,M,
Boys,67.13,5,Fabricio Lopez,Louise,65.05,113.4,65.77,124.74,303.91,Single-ply,SBD,M,
Boys,67.13,6,Aedyn Garcia,Louise,60.78,99.79,65.77,131.54,297.1,Single-ply,SBD,M,
Boys,67.13,7,Kaiden Schoeman,Louise,62.87,102.06,65.77,117.93,285.76,Single-ply,SBD,M,
Boys,67.13,DQ,Blake Beeson,Louise,66.77,,,,,Single-ply,SBD,M,
Boys,67.13,DQ,Luke Bures,Ganado,65.59,,,,,Single-ply,SBD,M,
Boys,74.84,1,Alexis Martinez #14,Ganado,74.84,195.04,115.67,176.9,487.61,Single-ply,SBD,M,
Boys,74.84,2,Hernandez Manuel,Needville,73.48,170.1,83.91,181.44,435.45,Single-ply,SBD,M,
Boys,74.84,3,Benjamin Blanco,Louise,68.31,154.22,86.18,170.1,410.5,Single-ply,SBD,M,
Boys,74.84,4,Nathan Glaze,El Maton Tidehaven,74.21,142.88,106.59,149.69,399.16,Single-ply,SBD,M,
Boys,74.84,5,Luke Montague,El Maton Tidehaven,73.48,136.08,108.86,142.88,387.82,Single-ply,SBD,M,
Boys,74.84,6,Joseluis Cisneros,Palacios,69.85,145.15,72.57,161.03,378.75,Single-ply,SBD,M,
Boys,74.84,7,Austin Rash,Needville,70.03,133.81,79.38,138.35,351.53,Single-ply,SBD,M,
Boys,74.84,8,Gavin Duke,Palacios,70.49,113.4,65.77,170.1,349.27,Single-ply,SBD,M,
Boys,74.84,9,Alex Garcia #24,Palacios,68.76,131.54,74.84,115.67,322.05,Single-ply,SBD,M,
Boys,74.84,10,Felix Rodriguez,Bay City,67.86,108.86,61.23,115.67,285.76,Single-ply,SBD,M,
Boys,74.84,11,Artimeo Alvarez,Louise,70.76,97.52,56.7,122.47,276.69,Single-ply,SBD,M,
Boys,74.84,DQ,Alejandro Balderas,Louise,68.04,111.13,,,,Single-ply,SBD,M,
Boys,74.84,DQ,Jacob Martinez,El Maton Tidehaven,74.03,102.06,108.86,,,Single-ply,SBD,M,
Boys,82.1,1,Joseph Tate,El Maton Tidehaven,81.92,192.78,136.08,190.51,519.36,Single-ply,SBD,M,
Boys,82.1,2,Carter Kovar,Ganado,79.56,181.44,92.99,176.9,451.32,Single-ply,SBD,M,
Boys,82.1,3,Jaireon Simmons,Needville,81.74,142.88,117.93,183.7,444.52,Single-ply,SBD,M,
Boys,82.1,4,Lebron Garcia,El Maton Tidehaven,81.92,147.42,81.65,174.63,403.7,Single-ply,SBD,M,
Boys,82.1,5,Brandon Almeda,Ganado,75.84,154.22,90.72,136.08,381.02,Single-ply,SBD,M,
Boys,82.1,6,Fisher Keszler,El Maton Tidehaven,81.65,140.61,92.99,145.15,378.75,Single-ply,SBD,M,
Boys,82.1,DQ,Joseph Suggs,Louise,81.28,124.74,,,,Single-ply,SBD,M,
Boys,89.81,1,Juan Andrade,Bay City,83.19,154.22,95.25,163.29,412.77,Single-ply,SBD,M,
Boys,89.81,DQ,David Almeda,Ganado,87.72,167.83,95.25,,,Single-ply,SBD,M,
Boys,99.79,1,Caden Bradford,Bay City,93.71,251.74,154.22,222.26,628.23,Single-ply,SBD,M,
Boys,99.79,2,Hunter Brewster,Needville,94.08,244.94,140.61,231.33,616.89,Single-ply,SBD,M,
Boys,99.79,3,Matthew Torres,Needville,90.72,231.33,111.13,199.58,542.04,Single-ply,SBD,M,
Boys,99.79,4,Sean Sneath,El Maton Tidehaven,95.8,190.51,117.93,204.12,512.56,Single-ply,SBD,M,
Boys,99.79,5,Marco Hernandez,Needville,95.35,197.31,113.4,197.31,508.02,Single-ply,SBD,M,
Boys,99.79,6,Glenn Ihde,Bay City,92.94,204.12,102.06,197.31,503.49,Single-ply,SBD,M,
Boys,99.79,7,Brian Resendez,El Maton Tidehaven,99.25,170.1,104.33,185.97,460.4,Single-ply,SBD,M,
Boys,99.79,8,Jacob Muniz,Needville,92.8,174.63,97.52,176.9,449.06,Single-ply,SBD,M,
Boys,99.79,9,Damian Gundelach,Louise,97.07,154.22,92.99,176.9,424.11,Single-ply,SBD,M,
Boys,99.79,10,Jeric Melchor,Louise,96.52,158.76,95.25,161.03,415.04,Single-ply,SBD,M,
Boys,99.79,11,Ricardo Garcia,Bay City,93.35,124.74,77.11,165.56,367.41,Single-ply,SBD,M,
Boys,99.79,12,Jensen McKinney,Palacios,91.99,131.54,81.65,136.08,349.27,Single-ply,SBD,M,
Boys,109.77,1,Sean Cotton,El Maton Tidehaven,102.78,176.9,102.06,183.7,462.66,Single-ply,SBD,M,
Boys,109.77,2,Alex Burciaga,Bay City,103.96,181.44,97.52,165.56,444.52,Single-ply,SBD,M,
Boys,109.77,3,Courtney Williams,Bay City,105.87,124.74,65.77,124.74,315.25,Single-ply,SBD,M,
Boys,109.77,DQ,Chase McCrae,Palacios,100.61,106.59,,,,Single-ply,SBD,M,
Boys,109.77,DQ,Wyatt Lee,El Maton Tidehaven,109.68,226.8,170.1,,,Single-ply,SBD,M,
Boys,124.74,1,Andrew Galvan,El Maton Tidehaven,120.84,249.48,156.49,192.78,598.74,Single-ply,SBD,M,
Boys,124.74,2,Vincent Barajas,Ganado,111.81,181.44,90.72,170.1,442.25,Single-ply,SBD,M,
Boys,124.74,3,Leland Aguilar,Bay City,123.65,170.1,88.45,170.1,428.64,Single-ply,SBD,M,
Boys,139.71,1,Landon Henke,Needville,132.72,328.85,206.38,281.23,816.47,Single-ply,SBD,M,
Boys,139.71,2,Dailynn Hernandez,Bay City,132.81,272.16,145.15,208.65,625.96,Single-ply,SBD,M,
Boys,139.71,3,Isaac Allen,Bay City,132.9,226.8,138.35,183.7,548.85,Single-ply,SBD,M,
Boys,139.71,4,Pete Galvan,Louise,126.73,170.1,97.52,176.9,444.52,Single-ply,SBD,M,
Boys,,NS,Sergio Pedraza,Louise,,,,,,Single-ply,SBD,M,
Boys,,NS,Andrew Bonilla,Needville,,,,,,Single-ply,SBD,M,
Boys,,NS,Joshua Murphy,Needville,,,,,,Single-ply,SBD,M,
Boys,,NS,Oscar Parga,Palacios,,,,,,Single-ply,SBD,M,
Boys,,NS,Johnathan Lopez,Palacios,,,,,,Single-ply,SBD,M,
Boys,,NS,Anthony Nguyen #3,Palacios,,,,,,Single-ply,SBD,M,
Boys,,NS,Matt Sandoval,Palacios,,,,,,Single-ply,SBD,M,
Boys,,NS,Brandon Garcia,Bay City,,,,,,Single-ply,SBD,M,
Boys,,NS,Jerry Johnson,El Maton Tidehaven,,,,,,Single-ply,SBD,M,
