Division,WeightClassKg,Place,Name,Team,BodyweightKg,Best3SquatKg,Best3BenchKg,Best3DeadliftKg,TotalKg,Equipment,Event,Sex,BirthDate
Boys,51.71,1,Heath Scholottman,Mount Vernon,51.62,133.81,117.93,163.29,415.04,Single-ply,SBD,M,
Boys,51.71,2,Carlos Flores,Quitman,51.62,163.29,102.06,147.42,412.77,Single-ply,SBD,M,
Boys,51.71,3,Jose Ruiz,Diboll,50.26,138.35,68.04,142.88,349.27,Single-ply,SBD,M,
Boys,51.71,4,Jayden Markham,Quitman,48.99,142.88,68.04,131.54,342.46,Single-ply,SBD,M,
Boys,51.71,5,Juan Gonzales,Gladewater Sabine,50.53,142.88,74.84,124.74,342.46,Single-ply,SBD,M,
Boys,51.71,6,Alex Simpson,Daingerfield,51.35,115.67,74.84,122.47,312.98,Single-ply,SBD,M,
Boys,51.71,7,Isiah Compean,Diboll,51.17,117.93,61.23,131.54,310.71,Single-ply,SBD,M,
Boys,51.71,8,Preston Riddle,Trinity,50.71,104.33,63.5,120.2,288.03,Single-ply,SBD,M,
Boys,51.71,9,Wyatt Benett,Trinity,51.53,102.06,63.5,111.13,276.69,Single-ply,SBD,M,
Boys,51.71,10,Omar Perez,Mineola,44.91,90.72,61.23,104.33,256.28,Single-ply,SBD,M,
Boys,51.71,DQ,Alejandro Netro,New London West Rusk,51.26,142.88,56.7,,,Single-ply,SBD,M,
Boys,51.71,DQ,Juan Ordorica,Winona,50.71,,,,,Single-ply,SBD,M,
Boys,55.79,1,Avery Whitlow,Atlanta,54.7,167.83,86.18,176.9,430.91,Single-ply,SBD,M,
Boys,55.79,2,Hugo Sanchez,Pattonville Prairiland,55.25,176.9,102.06,149.69,428.64,Single-ply,SBD,M,
Boys,55.79,3,Kirkland Cobb,White Oak,54.52,167.83,90.72,165.56,424.11,Single-ply,SBD,M,
Boys,55.79,4,Ryan Widemon,Quitman,54.07,158.76,77.11,145.15,381.02,Single-ply,SBD,M,
Boys,55.79,5,Trey LaPrarie,Elkhart,55.43,149.69,65.77,133.81,349.27,Single-ply,SBD,M,
Boys,55.79,6,Vicente Ordorica,Winona,55.79,113.4,81.65,122.47,317.51,Single-ply,SBD,M,
Boys,55.79,7,Devin Walker,New Boston,53.43,111.13,58.97,104.33,274.42,Single-ply,SBD,M,
Boys,55.79,DQ,Luis Ortega,Winona,54.98,,,,,Single-ply,SBD,M,
Boys,55.79,DQ,Col Stevens,Big Sandy Harmony,55.79,,,,,Single-ply,SBD,M,
Boys,55.79,DQ,Caleb Cox,Gladewater Sabine,54.7,,,,,Single-ply,SBD,M,
Boys,59.87,1,Quintin Taylor,Troup,59.42,174.63,111.13,188.24,474,Single-ply,SBD,M,
Boys,59.87,2,Cayden Phillips,Gladewater Sabine,57.79,163.29,117.93,170.1,451.32,Single-ply,SBD,M,
Boys,59.87,3,Braiden York,Elkhart,59.69,181.44,102.06,154.22,437.72,Single-ply,SBD,M,
Boys,59.87,4,Karson Owens,Mount Pleasant Chapel Hill,58.97,158.76,95.25,170.1,424.11,Single-ply,SBD,M,
Boys,59.87,5,Joe Ray,Gladewater Sabine,58.33,161.03,90.72,165.56,417.3,Single-ply,SBD,M,
Boys,59.87,6,Thomas Morris,Omaha Pewitt,59.69,147.42,92.99,174.63,415.04,Single-ply,SBD,M,
Boys,59.87,7,Alex Stepp,Hemphill,58.6,136.08,90.72,174.63,401.43,Single-ply,SBD,M,
Boys,59.87,8,Adam Dean,Pollok Central,58.97,145.15,74.84,167.83,387.82,Single-ply,SBD,M,
Boys,59.87,9,Aj Walker,Pollok Central,59.24,136.08,74.84,158.76,369.68,Single-ply,SBD,M,
Boys,59.87,10,Tyler Beebe,Gladewater Sabine,59.06,136.08,77.11,149.69,362.87,Single-ply,SBD,M,
Boys,59.87,11,Jack Miller,Grand Saline,57.97,142.88,77.11,131.54,351.53,Single-ply,SBD,M,
Boys,59.87,12,Seth Hicks,Hughes Springs,57.88,113.4,72.57,136.08,322.05,Single-ply,SBD,M,
Boys,67.13,1,Kile Stripland,Gladewater Sabine,66.77,199.58,131.54,195.04,526.17,Single-ply,SBD,M,
Boys,67.13,2,Remington Lassman,Trinity,65.68,213.19,111.13,197.31,521.63,Single-ply,SBD,M,
Boys,67.13,3,Kaden Mahoney,Troup,66.22,181.44,124.74,192.78,498.95,Single-ply,SBD,M,
Boys,67.13,4,Markus Gonzalez,Waskom,65.77,176.9,108.86,199.58,485.34,Single-ply,SBD,M,
Boys,67.13,5,Jack Tannebaum,Quitman,62.6,181.44,83.91,183.7,449.06,Single-ply,SBD,M,
Boys,67.13,6,Alonzo Torres,Mount Vernon,66.77,165.56,99.79,183.7,449.06,Single-ply,SBD,M,
Boys,67.13,7,Gage Shirts,Harleton,65.68,190.51,95.25,161.03,446.79,Single-ply,SBD,M,
Boys,67.13,8,Carson Bobbitt,New London West Rusk,66.5,156.49,106.59,176.9,439.98,Single-ply,SBD,M,
Boys,67.13,9,Lane Davis,Mount Pleasant Chapel Hill,64.95,165.56,108.86,163.29,437.72,Single-ply,SBD,M,
Boys,67.13,10,Kyle Ritter,Ore City,65.5,161.03,95.25,179.17,435.45,Single-ply,SBD,M,
Boys,67.13,11,Mason Windham,Redwater,66.22,151.95,90.72,183.7,426.38,Single-ply,SBD,M,
Boys,74.84,1,Jose Villanueva,Kemp,74.03,260.82,151.95,208.65,621.42,Single-ply,SBD,M,
Boys,74.84,2,Zane Smith #1,Gladewater Sabine,73.48,213.19,161.03,215.46,589.67,Single-ply,SBD,M,
Boys,74.84,3,Cole Odom,Trinity,74.75,229.06,142.88,206.38,578.33,Single-ply,SBD,M,
Boys,74.84,4,Max Lara,Elkhart,74.21,226.8,136.08,210.92,573.79,Single-ply,SBD,M,
Boys,74.84,5,Carson Levee,Winona,73.03,229.06,120.2,208.65,557.92,Single-ply,SBD,M,
Boys,74.84,6,Kaden Orr,Mount Vernon,73.12,188.24,149.69,206.38,544.31,Single-ply,SBD,M,
Boys,74.84,7,Cruz Hernandez,De Kalb,73.75,215.46,129.27,188.24,532.97,Single-ply,SBD,M,
Boys,74.84,8,Wyatt Hightower,Quitman,74.48,204.12,138.35,188.24,530.7,Single-ply,SBD,M,
Boys,74.84,9,Camden Ward,Gladewater Sabine,72.94,201.85,120.2,206.38,528.44,Single-ply,SBD,M,
Boys,74.84,10,Austin Pittman,Elkhart,74.3,208.65,120.2,181.44,510.29,Single-ply,SBD,M,
Boys,74.84,11,Chase Mays,Mount Pleasant Chapel Hill,72.3,183.7,124.74,197.31,505.76,Single-ply,SBD,M,
Boys,74.84,12,Andrew Huddleston,Mount Vernon,72.67,179.17,136.08,179.17,494.42,Single-ply,SBD,M,
Boys,74.84,DQ,Thomas Fuller,Arp,74.03,,,,,Single-ply,SBD,M,
Boys,82.1,1,Aaron Quezada,Kemp,80.92,274.42,154.22,204.12,632.76,Single-ply,SBD,M,
Boys,82.1,2,Makenzie McGill,Mount Vernon,82.1,249.48,136.08,235.87,621.42,Single-ply,SBD,M,
Boys,82.1,3,Keanu Wolfe,Elkhart,81.28,256.28,142.88,213.19,612.35,Single-ply,SBD,M,
Boys,82.1,4,Dalton Daniel,New Boston,81.37,263.08,122.47,226.8,612.35,Single-ply,SBD,M,
Boys,82.1,5,Landon Moses,Gladewater Sabine,80.2,208.65,145.15,208.65,562.45,Single-ply,SBD,M,
Boys,82.1,6,Kyle Gross,Atlanta,79.56,181.44,127.01,238.14,546.58,Single-ply,SBD,M,
Boys,82.1,7,Riley Roys,Gladewater Sabine,82.1,213.19,127.01,197.31,537.51,Single-ply,SBD,M,
Boys,82.1,8,Jake Murray,Hughes Springs,80.38,204.12,120.2,204.12,528.44,Single-ply,SBD,M,
Boys,82.1,9,Holden Hodges,White Oak,81.1,204.12,113.4,204.12,521.63,Single-ply,SBD,M,
Boys,82.1,10,Christian Flores,Palestine Westwood,77.56,185.97,122.47,185.97,494.42,Single-ply,SBD,M,
Boys,82.1,DQ,Reed Thornburgh,Gladewater Sabine,79.02,,,,,Single-ply,SBD,M,
Boys,82.1,DQ,Anthony Martinez #14,Emory Rains,81.37,,,,,Single-ply,SBD,M,
Boys,89.81,1,Jesus Portillo,Kemp,85.46,285.76,172.37,215.46,673.58,Single-ply,SBD,M,
Boys,89.81,2,Amar Love,De Kalb,85.18,249.48,149.69,260.82,659.98,Single-ply,SBD,M,
Boys,89.81,3,K'Vionne Davis,Malakoff,89.45,278.96,142.88,226.8,648.64,Single-ply,SBD,M,
Boys,89.81,4,Esteban Munoz,Winona,88.9,269.89,147.42,217.72,635.03,Single-ply,SBD,M,
Boys,89.81,5,Gabe Villarreal,Palestine Westwood,88,233.6,131.54,229.06,594.21,Single-ply,SBD,M,
Boys,89.81,6,Rylan Freeman,Tatum,84.28,254.01,136.08,197.31,587.4,Single-ply,SBD,M,
Boys,89.81,7,Ryan Yeater,Jefferson,83.19,219.99,145.15,219.99,585.13,Single-ply,SBD,M,
Boys,89.81,8,Parker Key,Jefferson,86,213.19,142.88,229.06,585.13,Single-ply,SBD,M,
Boys,89.81,9,Austin Stephens,Gladewater Sabine,86.64,224.53,142.88,195.04,562.45,Single-ply,SBD,M,
Boys,89.81,10,Josue Rosales,Diboll,85.46,226.8,117.93,210.92,555.65,Single-ply,SBD,M,
Boys,89.81,11,Juan Ramos,Mount Vernon,85.18,192.78,138.35,199.58,530.7,Single-ply,SBD,M,
Boys,89.81,12,Kaden Richard,Gladewater Sabine,84.28,197.31,127.01,195.04,519.36,Single-ply,SBD,M,
Boys,99.79,1,Hayden Thomas,Pattonville Prairiland,96.89,256.28,170.1,267.62,694,Single-ply,SBD,M,
Boys,99.79,2,Daylon Branham,Gladewater Sabine,90.26,263.08,147.42,247.21,657.71,Single-ply,SBD,M,
Boys,99.79,3,Cole Edwards #1,Hughes Springs,95.71,247.21,163.29,247.21,657.71,Single-ply,SBD,M,
Boys,99.79,4,Easton Minter,Redwater,97.52,258.55,158.76,210.92,628.23,Single-ply,SBD,M,
Boys,99.79,5,Payton Yandle,De Kalb,96.16,233.6,151.95,231.33,616.89,Single-ply,SBD,M,
Boys,99.79,6,Clay Fant,Waskom,96.43,240.4,140.61,231.33,612.35,Single-ply,SBD,M,
Boys,99.79,7,Cade Pipes,Redwater,97.25,258.55,142.88,208.65,610.08,Single-ply,SBD,M,
Boys,99.79,8,Calvin Mason,New London West Rusk,93.89,210.92,142.88,224.53,578.33,Single-ply,SBD,M,
Boys,99.79,9,Knox Tomlinson,Jefferson,96.43,226.8,136.08,208.65,571.53,Single-ply,SBD,M,
Boys,99.79,DQ,Zane Reynolds,Huntington,97.34,,,,,Single-ply,SBD,M,
Boys,109.77,1,John Collier,Redwater,106.96,333.39,183.7,251.74,768.84,Single-ply,SBD,M,
Boys,109.77,2,Jaden Wells,Atlanta,109.23,251.74,165.56,256.28,673.58,Single-ply,SBD,M,
Boys,109.77,3,Johnata Jones,Quitman,109.59,258.55,165.56,247.21,671.32,Single-ply,SBD,M,
Boys,109.77,4,Steven Calico,Gladewater Sabine,105.69,244.94,149.69,242.67,637.3,Single-ply,SBD,M,
Boys,109.77,5,Corbin Brantley,Mount Vernon,105.96,249.48,167.83,206.38,623.69,Single-ply,SBD,M,
Boys,109.77,6,Carsen Cox,Pattonville Prairiland,108.86,249.48,136.08,235.87,621.42,Single-ply,SBD,M,
Boys,109.77,7,Hayden Batchelder,Quitman,101.7,247.21,136.08,213.19,596.47,Single-ply,SBD,M,
Boys,109.77,8,Dawson Brooks,Gladewater Sabine,102.97,233.6,147.42,210.92,591.94,Single-ply,SBD,M,
Boys,109.77,9,Caiden Moore,Mount Vernon,100.7,215.46,170.1,204.12,589.67,Single-ply,SBD,M,
Boys,109.77,10,De'Vonta Waites,Jefferson,108.5,256.28,113.4,195.04,564.72,Single-ply,SBD,M,
Boys,109.77,11,Matthew Gomez,Palestine Westwood,101.51,206.38,127.01,226.8,560.19,Single-ply,SBD,M,
Boys,109.77,DQ,Dj Newsome,Mineola,109.41,249.48,142.88,,,Single-ply,SBD,M,
Boys,124.74,1,Lance Robertson,Malakoff,123.74,294.84,181.44,244.94,721.21,Single-ply,SBD,M,
Boys,124.74,2,Alex Salazar #2,Grand Saline,122.65,256.28,151.95,226.8,635.03,Single-ply,SBD,M,
Boys,124.74,3,Mason Logan,Malakoff,122.29,240.4,161.03,222.26,623.69,Single-ply,SBD,M,
Boys,124.74,4,John Owens,Redwater,115.39,233.6,158.76,217.72,610.08,Single-ply,SBD,M,
Boys,124.74,5,Corey Ingram,De Kalb,109.95,238.14,140.61,226.8,605.55,Single-ply,SBD,M,
Boys,124.74,6,Damyan Rojas,Diboll,122.02,244.94,142.88,215.46,603.28,Single-ply,SBD,M,
Boys,124.74,7,Marlon Hayes,Daingerfield,112.49,215.46,165.56,219.99,601.01,Single-ply,SBD,M,
Boys,124.74,8,Jairo Lascano,Diboll,121.74,242.67,108.86,217.72,569.26,Single-ply,SBD,M,
Boys,124.74,9,Ryder Rogers,Malakoff,115.76,215.46,138.35,213.19,566.99,Single-ply,SBD,M,
Boys,124.74,10,Lane Woods,Harleton,112.49,226.8,127.01,208.65,562.45,Single-ply,SBD,M,
Boys,124.74,11,Malik Tatum,Daingerfield,115.3,195.04,117.93,247.21,560.19,Single-ply,SBD,M,
Boys,124.74,12,Cason Reed,New London West Rusk,115.39,204.12,106.59,215.46,526.17,Single-ply,SBD,M,
Boys,139.71,1,Bryce Clark,Jefferson,124.92,274.42,165.56,242.67,682.66,Single-ply,SBD,M,
Boys,139.71,2,David French,Eustace,125.55,244.94,161.03,260.82,666.78,Single-ply,SBD,M,
Boys,139.71,3,Laynce Welch,Waskom,133.54,272.16,154.22,240.4,666.78,Single-ply,SBD,M,
Boys,139.71,4,Hunter Vasquez,Pollok Central,135.44,249.48,151.95,222.26,623.69,Single-ply,SBD,M,
Boys,139.71,5,Gage Parker,Elysian Fields,128.37,247.21,165.56,204.12,616.89,Single-ply,SBD,M,
Boys,139.71,6,Rhyen Pope,Queen City,126.46,215.46,136.08,249.48,601.01,Single-ply,SBD,M,
Boys,139.71,7,Elis Caceres,Trinity,130.82,229.06,136.08,235.87,601.01,Single-ply,SBD,M,
Boys,139.71,8,Jy'Keelin Frazier,Daingerfield,132.54,229.06,142.88,210.92,582.87,Single-ply,SBD,M,
Boys,139.71,9,Aiden Gonzalez,Pollok Central,125.37,226.8,115.67,195.04,537.51,Single-ply,SBD,M,
Boys,139.71,10,Carlos Cortes,Atlanta,124.83,219.99,120.2,190.51,530.7,Single-ply,SBD,M,
Boys,139.71,DQ,Lance Langenbau,Arp,130.09,,,,,Single-ply,SBD,M,
Boys,139.71,DQ,Nick Smith,Huntington,131.45,,,,,Single-ply,SBD,M,
Boys,139.71+,1,Cedric Davis,Queen City,180.35,285.76,170.1,288.03,743.89,Single-ply,SBD,M,
Boys,139.71+,2,Jon Tatum,Ore City,146.51,267.62,154.22,208.65,630.49,Single-ply,SBD,M,
Boys,139.71+,3,Jason Payne,Huntington,176.54,217.72,136.08,260.82,614.62,Single-ply,SBD,M,
Boys,139.71+,4,Kei'Arriyen Parks,Hemphill,168.1,238.14,140.61,226.8,605.55,Single-ply,SBD,M,
Boys,139.71+,5,Bryce Everett,Arp,151.41,229.06,156.49,199.58,585.13,Single-ply,SBD,M,
Boys,139.71+,6,Zekedrick Jenkins,Diboll,141.43,226.8,124.74,206.38,557.92,Single-ply,SBD,M,
Boys,139.71+,7,Fernando Rodriguez,Winona,159.39,210.92,149.69,170.1,530.7,Single-ply,SBD,M,
Boys,139.71+,8,Sylas Hollins,Redwater,149.78,181.44,131.54,188.24,501.22,Single-ply,SBD,M,
Boys,139.71+,DQ,Riley Dyer,Big Sandy Harmony,156.31,238.14,,,,Single-ply,SBD,M,
Boys,139.71+,DQ,Kayden Ballard,Big Sandy Harmony,146.96,,,,,Single-ply,SBD,M,
Boys,139.71+,DQ,Brandon Rice,Jefferson,160.66,231.33,136.08,,,Single-ply,SBD,M,
