Division,WeightClassKg,Place,Name,Team,BodyweightKg,Best3SquatKg,Best3BenchKg,Best3DeadliftKg,TotalKg,Equipment,Event,Sex
Boys,51.71,1,Uriel Rodriguez,Crawford,47.81,140.61,72.57,145.15,358.34,Single-ply,SBD,M
Boys,55.79,2,David Hernandez,Hearne,51.89,117.93,74.84,154.22,347,Single-ply,SBD,M
Boys,51.71,3,Seth Solis,Troy,47.99,129.27,72.57,124.74,326.59,Single-ply,SBD,M
Boys,55.79,4,Trevor Koestens,Troy,51.89,122.47,68.04,129.27,319.78,Single-ply,SBD,M
Boys,51.71,5,Ross Ginsburg,Waco Reicher Catholic,50.8,113.4,63.5,127.01,303.91,Single-ply,SBD,M
Boys,51.71,6,Phillip Sharp,Waco Reicher Catholic,51.26,104.33,65.77,111.13,281.23,Single-ply,SBD,M
Boys,51.71,7,Jacob Stanford,Riesel,51.62,95.25,52.16,106.59,254.01,Single-ply,SBD,M
Boys,51.71,8,Ryan Daniel,Whitney,41.55,63.5,31.75,63.5,158.76,Single-ply,SBD,M
Boys,55.79,1,Cody Villa,Crawford,55.25,156.49,99.79,201.85,458.13,Single-ply,SBD,M
Boys,59.87,2,Javier Sauceda,China Spring,55.88,122.47,74.84,140.61,337.93,Single-ply,SBD,M
Boys,55.79,3,Clayton Keahey,Waco Reicher Catholic,54.25,122.47,63.5,129.27,315.25,Single-ply,SBD,M
Boys,55.79,4,Mason Mathews,Gatesville,55.61,115.67,58.97,136.08,310.71,Single-ply,SBD,M
Boys,55.79,DQ,Estefano Lopez,Waco University,52.53,,,,,Single-ply,SBD,M
Boys,59.87,1,Jaquay Brown,Milford,59.47,158.76,83.91,172.37,415.04,Single-ply,SBD,M
Boys,59.87,2,Nolan Jackson,Lorena,59.87,158.76,72.57,149.69,381.02,Single-ply,SBD,M
Boys,59.87,3,Zachary Pierce,Lorena,59.6,131.54,65.77,131.54,328.85,Single-ply,SBD,M
Boys,59.87,4,Joseph Bryant,Waco La Vega,59.87,113.4,79.38,136.08,328.85,Single-ply,SBD,M
Boys,59.87,5,Colton Gober,Troy,59.6,111.13,63.5,151.95,326.59,Single-ply,SBD,M
Boys,67.13,6,Keith Kayser,Milford,60.06,122.47,56.7,129.27,308.44,Single-ply,SBD,M
Boys,59.87,DQ,Isaiah Sisneros,Waco University,57.7,83.91,,,,Single-ply,SBD,M
Boys,74.84,1,Dylan Haralson,Axtell,67.22,222.26,106.59,235.87,564.72,Single-ply,SBD,M
Boys,67.13,2,Noah Contella,Waco Reicher Catholic,66.68,204.12,113.4,197.31,514.83,Single-ply,SBD,M
Boys,74.84,3,Andrew Marrero,Lorena,67.31,215.46,92.99,206.38,514.83,Single-ply,SBD,M
Boys,67.13,4,Kyle Jacobs,McGregor,66.77,188.24,133.81,188.24,510.29,Single-ply,SBD,M
Boys,67.13,5,Gabe Cobos,Riesel,66.86,183.7,99.79,208.65,492.15,Single-ply,SBD,M
Boys,74.84,6,William Toliver,Hearne,67.31,165.56,102.06,213.19,480.81,Single-ply,SBD,M
Boys,74.84,7,Ty Mooney,McGregor,67.31,215.46,86.18,174.63,476.27,Single-ply,SBD,M
Boys,67.13,8,Phillip Carpenter,Waco La Vega,64.77,190.51,86.18,195.04,471.74,Single-ply,SBD,M
Boys,74.84,9,Eduardo Jaimes,Riesel,67.31,195.04,106.59,170.1,471.74,Single-ply,SBD,M
Boys,67.13,10,James Davis,Waco Connally,63.41,163.29,102.06,190.51,455.86,Single-ply,SBD,M
Boys,67.13,11,Hunter Solano,Waco Reicher Catholic,65.32,163.29,102.06,176.9,442.25,Single-ply,SBD,M
Boys,67.13,12,Blaine Wootan,College Station,65.23,181.44,88.45,170.1,439.98,Single-ply,SBD,M
Boys,67.13,13,Harley Eldridge,Waco Connally,65.95,156.49,102.06,170.1,428.64,Single-ply,SBD,M
Boys,67.13,14,Tanner Bailey,Waco Reicher Catholic,65.77,145.15,83.91,185.97,415.04,Single-ply,SBD,M
Boys,67.13,15,Nate Seale,McGregor,66.22,156.49,102.06,154.22,412.77,Single-ply,SBD,M
Boys,67.13,16,Kris Glynn,Waco University,61.33,127.01,74.84,167.83,369.68,Single-ply,SBD,M
Boys,67.13,17,Adrian Ojeda,Milford,66.41,147.42,81.65,138.35,367.41,Single-ply,SBD,M
Boys,67.13,18,Martin Bruich,Waco Reicher Catholic,63.5,136.08,68.04,154.22,358.34,Single-ply,SBD,M
Boys,67.13,19,Dylan Greene,Whitney,65.23,136.08,79.38,136.08,351.53,Single-ply,SBD,M
Boys,67.13,20,Sam Cooper #3,Crawford,64.32,131.54,72.57,138.35,342.46,Single-ply,SBD,M
Boys,67.13,21,Josh Turner,McGregor,61.69,131.54,81.65,122.47,335.66,Single-ply,SBD,M
Boys,67.13,22,Cannon Montgomery,China Spring,63.14,124.74,72.57,136.08,333.39,Single-ply,SBD,M
Boys,67.13,23,David Johnson,Waco Reicher Catholic,62.14,108.86,70.31,124.74,303.91,Single-ply,SBD,M
Boys,67.13,24,Arthur Pryor,Hearne,61.78,102.06,43.09,111.13,256.28,Single-ply,SBD,M
Boys,74.84,1,Marco Vasquez,Riesel,74.84,204.12,122.47,204.12,530.7,Single-ply,SBD,M
Boys,74.84,2,Chris Dingrando,Whitney,74.3,190.51,120.2,217.72,528.44,Single-ply,SBD,M
Boys,74.84,3,Roy Ward,Waco Reicher Catholic,70.76,210.92,113.4,197.31,521.63,Single-ply,SBD,M
Boys,74.84,4,Kyle Castilleja,Hearne,74.84,174.63,104.33,238.14,517.1,Single-ply,SBD,M
Boys,74.84,5,Drew Roberts,China Spring,74.84,195.04,120.2,170.1,485.34,Single-ply,SBD,M
Boys,74.84,6,Cody Yetter,College Station,70.76,183.7,102.06,192.78,478.54,Single-ply,SBD,M
Boys,74.84,7,Barclay Brunson,Crawford,72.3,170.1,102.06,183.7,455.86,Single-ply,SBD,M
Boys,74.84,8,Chris Sennette,College Station,71.3,181.44,90.72,176.9,449.06,Single-ply,SBD,M
Boys,74.84,9,Darius Dorsey,Mexia,70.22,161.03,111.13,161.03,433.18,Single-ply,SBD,M
Boys,74.84,10,JaColby Forge,Mexia,73.39,147.42,83.91,197.31,428.64,Single-ply,SBD,M
Boys,74.84,11,Matt Dingrando,Whitney,74.12,158.76,99.79,170.1,428.64,Single-ply,SBD,M
Boys,74.84,12,Brandon Pelton,Waco La Vega,70.58,170.1,90.72,161.03,421.84,Single-ply,SBD,M
Boys,74.84,13,Sydney Dominguez,McGregor,69.85,136.08,90.72,176.9,403.7,Single-ply,SBD,M
Boys,74.84,14,Patrick Gaither,China Spring,68.49,120.2,113.4,158.76,392.36,Single-ply,SBD,M
Boys,74.84,15,Teondre Parsons,Waco University,72.3,147.42,90.72,151.95,390.09,Single-ply,SBD,M
Boys,74.84,16,Kyle Holecek,Waco Reicher Catholic,73.94,127.01,77.11,145.15,349.27,Single-ply,SBD,M
Boys,74.84,17,Nic Welch,Troy,74.39,131.54,79.38,138.35,349.27,Single-ply,SBD,M
Boys,74.84,18,Christian Trigleth,Riesel,69.13,124.74,58.97,136.08,319.78,Single-ply,SBD,M
Boys,74.84,19,Patrick Cresson,Lorena,74.3,115.67,72.57,122.47,310.71,Single-ply,SBD,M
Boys,74.84,20,Lorenzo Vargas,Waco Reicher Catholic,69.4,115.67,61.23,129.27,306.17,Single-ply,SBD,M
Boys,74.84,21,Logan Leser,Riesel,69.76,113.4,61.23,120.2,294.84,Single-ply,SBD,M
Boys,74.84,22,Jacob Adams,Lorena,69.85,104.33,65.77,115.67,285.76,Single-ply,SBD,M
Boys,74.84,DQ,Dillon McBride,Axtell,71.3,149.69,,,,Single-ply,SBD,M
Boys,74.84,DQ,Andrew Craft,Waco University,73.57,,,,,Single-ply,SBD,M
Boys,82.1,1,Brett Boles,McGregor,80.65,231.33,158.76,222.26,612.35,Single-ply,SBD,M
Boys,82.1,2,Marco Castro,Waco Reicher Catholic,78.47,229.06,124.74,219.99,573.79,Single-ply,SBD,M
Boys,82.1,3,Allen Scott,Waco Reicher Catholic,79.38,206.38,133.81,217.72,557.92,Single-ply,SBD,M
Boys,89.81,4,Dawson Lochridge,Whitney,82.28,181.44,124.74,204.12,510.29,Single-ply,SBD,M
Boys,82.1,5,Alberto Carrillo,Mexia,78.93,183.7,115.67,199.58,498.95,Single-ply,SBD,M
Boys,82.1,6,Rajah Preciado,College Station,78.38,192.78,97.52,204.12,494.42,Single-ply,SBD,M
Boys,82.1,7,Koltan Hampton,China Spring,77.93,195.04,108.86,185.97,489.88,Single-ply,SBD,M
Boys,82.1,8,Patrick Clouston,College Station,79.92,185.97,92.99,190.51,469.47,Single-ply,SBD,M
Boys,82.1,9,Rodney Rogers,Franklin,77.56,179.17,117.93,170.1,467.2,Single-ply,SBD,M
Boys,82.1,10,Spencer Majors,Waco University,81.28,154.22,104.33,204.12,462.66,Single-ply,SBD,M
Boys,89.81,11,Jeff Morua,Waco University,82.28,179.17,104.33,179.17,462.66,Single-ply,SBD,M
Boys,82.1,12,Alex Parsons,McGregor,82.1,185.97,95.25,179.17,460.4,Single-ply,SBD,M
Boys,82.1,13,Joey Carrabba,Whitney,79.47,165.56,92.99,156.49,415.04,Single-ply,SBD,M
Boys,82.1,14,Cyan Vaughn,Waco Reicher Catholic,81.19,149.69,106.59,149.69,405.97,Single-ply,SBD,M
Boys,82.1,15,Clayton Swonke,Franklin,80.74,106.59,72.57,124.74,303.91,Single-ply,SBD,M
Boys,82.1,16,Jared Grooms,Waco Reicher Catholic,81.65,102.06,61.23,102.06,265.35,Single-ply,SBD,M
Boys,82.1,17,Gregory Strange,Milford,80.01,88.45,52.16,99.79,240.4,Single-ply,SBD,M
Boys,82.1,DQ,Matt Moseley,Lorena,79.83,170.1,,,,Single-ply,SBD,M
Boys,82.1,DQ,Bobby Graham,Franklin,81.19,170.1,,,,Single-ply,SBD,M
Boys,82.1,DQ,Edmond Marton,Axtell,79.83,222.26,120.2,,,Single-ply,SBD,M
Boys,89.81,1,Brody Jones,Crawford,87.91,276.69,161.03,247.21,684.92,Single-ply,SBD,M
Boys,89.81,2,MarcJavion McGrew,Hearne,88.18,238.14,131.54,254.01,623.69,Single-ply,SBD,M
Boys,89.81,3,Kaleb Miears,College Station,88.63,231.33,124.74,204.12,560.19,Single-ply,SBD,M
Boys,89.81,4,Lovett Ledger,Lorena,84.37,229.06,106.59,199.58,535.24,Single-ply,SBD,M
Boys,89.81,5,Jason Marroquin,Axtell,84.82,199.58,122.47,213.19,535.24,Single-ply,SBD,M
Boys,89.81,6,Tanner Coone,Axtell,85.28,201.85,136.08,197.31,535.24,Single-ply,SBD,M
Boys,89.81,7,Tyrique Hayes,College Station,87.82,208.65,129.27,195.04,532.97,Single-ply,SBD,M
Boys,89.81,8,Antonio Vargas,China Spring,85.28,176.9,142.88,195.04,514.83,Single-ply,SBD,M
Boys,89.81,9,Carter Clouston,College Station,88.63,199.58,104.33,195.04,498.95,Single-ply,SBD,M
Boys,89.81,10,Dillon Van Zandt,Crawford,86.55,204.12,99.79,190.51,494.42,Single-ply,SBD,M
Boys,89.81,11,Justin Mosley,Gatesville,83.64,199.58,113.4,179.17,492.15,Single-ply,SBD,M
Boys,89.81,12,Sam Jackson #1,Gatesville,86.36,183.7,104.33,192.78,480.81,Single-ply,SBD,M
Boys,89.81,13,Dustin Brown,Waco La Vega,85.73,176.9,124.74,167.83,469.47,Single-ply,SBD,M
Boys,89.81,14,Michael Autenrieth,Waco Connally,83.46,176.9,90.72,181.44,449.06,Single-ply,SBD,M
Boys,89.81,15,Erick Marton,Axtell,89.36,151.95,86.18,161.03,399.16,Single-ply,SBD,M
Boys,89.81,16,Luis Reyes,McGregor,86.91,142.88,83.91,149.69,376.48,Single-ply,SBD,M
Boys,89.81,17,Wyatt Faulkinberry,Lorena,89.36,149.69,79.38,145.15,374.21,Single-ply,SBD,M
Boys,89.81,18,Blake Berger,Crawford,87.91,156.49,81.65,131.54,369.68,Single-ply,SBD,M
Boys,89.81,19,Nathan Nix,Whitney,88,124.74,81.65,158.76,365.14,Single-ply,SBD,M
Boys,99.79,20,Miguel Munoz,Milford,89.99,149.69,88.45,127.01,365.14,Single-ply,SBD,M
Boys,89.81,21,Dallas Masters,Hearne,84.91,117.93,79.38,127.01,324.32,Single-ply,SBD,M
Boys,89.81,DQ,Dontavious Green,Waco University,86.18,213.19,,,,Single-ply,SBD,M
Boys,89.81,DQ,Bailey Guyness,Troy,86.73,,,,,Single-ply,SBD,M
Boys,99.79,1,Quinterrian White,College Station,97.52,285.76,151.95,249.48,687.19,Single-ply,SBD,M
Boys,99.79,2,Dalton Symm,China Spring,95.07,251.74,151.95,235.87,639.57,Single-ply,SBD,M
Boys,99.79,3,Deoryen Thornton,Waco Connally,96.16,242.67,142.88,226.8,612.35,Single-ply,SBD,M
Boys,99.79,4,Taylor Hull,China Spring,92.53,231.33,138.35,206.38,576.06,Single-ply,SBD,M
Boys,99.79,5,Cristian Contreras,Hearne,99.61,199.58,138.35,208.65,546.58,Single-ply,SBD,M
Boys,99.79,6,Quavious Gamble,Mexia,91.17,226.8,117.93,195.04,539.77,Single-ply,SBD,M
Boys,99.79,7,Nick Moler,Gatesville,95.89,210.92,111.13,217.72,539.77,Single-ply,SBD,M
Boys,99.79,8,Brandon Taylor #6,Gatesville,96.16,201.85,102.06,208.65,512.56,Single-ply,SBD,M
Boys,99.79,9,Arkiel Winn,Mexia,93.26,192.78,83.91,192.78,469.47,Single-ply,SBD,M
Boys,99.79,10,Zach Cobb,China Spring,93.44,181.44,122.47,151.95,455.86,Single-ply,SBD,M
Boys,99.79,11,Matthew Richter,Riesel,93.89,151.95,88.45,185.97,426.38,Single-ply,SBD,M
Boys,99.79,12,Rahi Patel,Mexia,91.17,151.95,97.52,161.03,410.5,Single-ply,SBD,M
Boys,99.79,13,Marcus DeLeon,Waco Connally,94.89,181.44,95.25,133.81,410.5,Single-ply,SBD,M
Boys,109.77,14,Carlos Venegas,Milford,99.97,156.49,83.91,158.76,399.16,Single-ply,SBD,M
Boys,109.77,1,Chris Robinson #5,Waco Connally,103.42,281.23,167.83,263.08,712.14,Single-ply,SBD,M
Boys,124.74,2,Byron Bryant,Waco La Vega,109.95,267.62,136.08,231.33,635.03,Single-ply,SBD,M
Boys,109.77,3,Justin Rhyne,Gatesville,107.05,217.72,172.37,210.92,601.01,Single-ply,SBD,M
Boys,109.77,4,Michael Padgett,Troy,106.14,226.8,151.95,199.58,578.33,Single-ply,SBD,M
Boys,109.77,5,Drew Rodriguez,College Station,109.68,226.8,131.54,215.46,573.79,Single-ply,SBD,M
Boys,109.77,6,Jose Reyes,Mexia,106.59,233.6,122.47,210.92,566.99,Single-ply,SBD,M
Boys,109.77,7,Vincent Tovar,Waco La Vega,109.32,217.72,133.81,172.37,523.9,Single-ply,SBD,M
Boys,109.77,8,Thomas Hernandez,Troy,103.87,190.51,117.93,199.58,508.02,Single-ply,SBD,M
Boys,109.77,9,Jarrett Gregory,Troy,103.87,204.12,104.33,192.78,501.22,Single-ply,SBD,M
Boys,109.77,10,Abram Villescaz,Waco Reicher Catholic,109.32,188.24,99.79,210.92,498.95,Single-ply,SBD,M
Boys,109.77,11,Doc Griego,Gatesville,103.69,176.9,104.33,195.04,476.27,Single-ply,SBD,M
Boys,109.77,12,Dylan Morgan,Riesel,104.78,163.29,120.2,163.29,446.79,Single-ply,SBD,M
Boys,109.77,13,Ricardo Molina,Mexia,101.33,179.17,104.33,158.76,442.25,Single-ply,SBD,M
Boys,109.77,14,Bailey Adair,Gatesville,103.24,181.44,102.06,158.76,442.25,Single-ply,SBD,M
Boys,109.77,15,William Robert,Riesel,103.87,154.22,102.06,158.76,415.04,Single-ply,SBD,M
Boys,109.77,16,Jacob Etheredge,McGregor,104.24,142.88,86.18,151.95,381.02,Single-ply,SBD,M
Boys,109.77,DQ,Alan Phillips,Franklin,101.6,151.95,,,,Single-ply,SBD,M
Boys,124.74,1,Ryan de la Garza,Waco Connally,110.4,272.16,151.95,244.94,669.05,Single-ply,SBD,M
Boys,124.74,2,Jordan Westbrook,Gatesville,116.03,242.67,154.22,226.8,623.69,Single-ply,SBD,M
Boys,124.74,3,Garrett Brunson,Lorena,117.93,254.01,140.61,222.26,616.89,Single-ply,SBD,M
Boys,124.74,4,Jordan Rivera,Waco La Vega,110.68,217.72,151.95,226.8,596.47,Single-ply,SBD,M
Boys,124.74,5,Jordan Seymore,College Station,121.38,244.94,120.2,215.46,580.6,Single-ply,SBD,M
Boys,124.74,6,Blake Johnson,Franklin,119.93,244.94,115.67,217.72,578.33,Single-ply,SBD,M
Boys,124.74,7,Chris Bullington,Gatesville,117.66,226.8,124.74,192.78,544.31,Single-ply,SBD,M
Boys,124.74,8,Andrew French #2,Waco Reicher Catholic,122.92,199.58,115.67,204.12,519.36,Single-ply,SBD,M
Boys,124.74,9,Gabriel Vega,Waco University,123.83,210.92,97.52,204.12,512.56,Single-ply,SBD,M
Boys,124.74,10,Andrew Escabedo,Waco La Vega,123.38,206.38,124.74,174.63,505.76,Single-ply,SBD,M
Boys,124.74+,1,Jessie Wilson,Whitney,150.86,283.5,229.06,281.23,793.79,Single-ply,SBD,M
Boys,124.74+,2,Marques Robinson,Waco Connally,135.17,294.84,151.95,235.87,682.66,Single-ply,SBD,M
Boys,124.74+,3,Thomas Turner,Waco University,129,254.01,149.69,219.99,623.69,Single-ply,SBD,M
Boys,124.74+,4,Lucas Morales,Waco Reicher Catholic,141.07,226.8,136.08,235.87,598.74,Single-ply,SBD,M
Boys,124.74+,5,Clay Sparks,China Spring,132,231.33,127.01,181.44,539.77,Single-ply,SBD,M
Boys,124.74+,6,Narciso Molina,Waco Connally,127.46,231.33,122.47,176.9,530.7,Single-ply,SBD,M
Boys,124.74+,7,Traylen Benny,Waco La Vega,135.53,217.72,131.54,181.44,530.7,Single-ply,SBD,M
Boys,124.74+,8,Codi Birch-Harris,Waco Connally,134.26,226.8,113.4,165.56,505.76,Single-ply,SBD,M
Boys,124.74+,9,Trederek Anglin,Mexia,143.34,181.44,102.06,181.44,464.93,Single-ply,SBD,M
Boys,124.74+,10,Ryan Alexander #2,Riesel,132.45,140.61,81.65,158.76,381.02,Single-ply,SBD,M
Boys,124.74+,DQ,Demetri Freeman,Mexia,131.09,217.72,102.06,,,Single-ply,SBD,M
