﻿                                                                                                      BK BENCH - DEADLIFT                                                     29/05/2010
          BDFPF           Bench  Unequiped                      Verslag
          W.Cat    Name                                                         Age Cat        BW     1                     2            3                         4          Points
- 63 KG   Wuyts           Helen              V  Gilberts Gym                    18        T3   59,0   65                    ----72,5     72,5                      0          63,2563
- 70 KG   Verkain         Jasmien            V                  Isogym          19        T3   68,7   42,5                  45           ----- 47,5                0          34,569
- 70 KG   Lerot           Viviane            V     Castors                      51        M3   65,0   45                    47,5         ---------50               0          38,1995
- 80 KG   Kumps           Francoise          V     Castors                      37        SR   73,8   52,5                  57,5         60                        0          43,806
- 90 KG   Fernandes       Christine          V     Castors                      43        M1   83,0   55                    ------- 60   60                        0          36,8555
60 KG     Smet            Indy               M  Planet Finess                   16        T2   56,3   70                    ------- 75   75                        0          65,2275
67,5 KG   Eeckhout        Laurens            M Elite Gym Gent                   14        T1   66,2   72,5                  75,5         77,5          --------8   -          57,2493
67,5 KG   Peeters         Alan               M  Gilberts Gym                    16        T2   67,4   85                    90           95,5                      0          69,4094
67,5 KG   Krikilion       Ulf                M Elite Gym Gent                   18        T3   66,9   95                    100          103                       -----10-   75,3651
67,5 KG   De Volder       Nicolas            M     KBBC                         18        T3   63,2   60                    ------- 70   75                        0          57,8775
75 KG     Hoste           Jelle              M    Fit 4 Fun                     14        T1   74,7   72,5                  78           80            ----82,     -          53,328
75 KG     Lefebvre        Jonas              M     KBBC                         18        T3   74,6   90                    95           100                       0          66,73
75 KG     Tirifahy        Pierre             M    Castors                       39        SR   74,9   135                   138,5        140                       142,5      93,128
75 KG     Verret          Danny              M Planet Fitness                   35        SR   74,9   -----120              125          139                       0          83,15
75 KG     Vangeersdale    Stijn              M     Apollo                       25        SR   72,9   95                    100          ---102,5                  0          67,97
75 KG     Callemeyn       Johny              M    Fit 4 fun                     56        M4   74,2   110                   116          0                         0          77,7316
75 KG     Remy            Roger              M    Castors                       57        M4   75,0   90                    95           97,5                      0          64,7888
82,5 KG   Vanneste        Niels              M    Isogym                        17        T2   81,0   80                    85           87,5                      0          54,8888
82,5 KG   Quartier        Matthieas          M     KBBC                         19        T3   77,6   95                    100          102,5                     0          66,3483
82,5 KG   Holvoet         Peter              M     Apollo                       35        SR   80,0   130                   140          146           --147,      -          92,4034
82,5 KG   Hallewaert      Bart               M    Isogym                        41        M1   79,7   132,5                 137,5        140           --143,      -          88,858
90 KG     Rahimi          Akil               M     KBBC                         22        JR   82,6   110                   120          125                       0          77,35
90 KG     Goethals        Dries              M     KBBC                         24        SR   83,4   110                   115          ---122,5                  0          70,6905
90 KG     Dhaene          Kevin              M   Flexi gym                      24        SR   86,9   100                   102,5        107,5                     0          64,3065
90 KG     Devos           Christiphe         M     Apollo                       30        SR   88,4   95                    102,5        107,5                     0          63,6185
90 KG     Verbeke         Beny               M    Isogym                        44        M1   85,3   110                   115          ------ 120                0          69,6325
90 KG     De Cock         Eugene             M     Apollo                       47        M2   82,7   95                    ----97,5     100                       0          61,83
90 KG     Devaere         Achiel             M                  lite  Gym Gen   62        M5   88,9   105                   -----110     110                       0          64,867
90 KG     Theyssens       Martin             M Elite Gym Gent                   70        M7   88,7   95                    102,5        107,5                     -----11-   63,4788
100 KG    Clappaert       Eduard             M     KBBC                         18        T3   92,3   120                   -----125     125                       135,5      72,1
100 KG    Boone           Chavez             M    Fit 4 Fun                     18        T3   92,4   115                   -----120     120                       0          66,2975
100 KG    Servotte        Geoffroy           M Planet Fitness                   29        SR   90,6   175                   180          ---182,5                  0          104,94
100 KG    Dockx           Frederic           M    Castors                       38        SR   95,2   150                   155          ---157,5                  0          87,916
100 KG    Delbecque       Leslie             M     KBBC                         28        SR   97,4   -----120              125          125                       0          70,1
100 KG    Smet            Rudy               M Planet Fitness                   41        M1   91,2   135                   -----140     142,5                     0          78,408
100 KG    Dutry           Luc                M    Fit 4 Fun                     45        M2   95,3   -----120              120          125                       0          70,8625

W.Cat    Name                                        Age Cat   BW           1          2          3               4       Points
100 KG Mertens     Rene           M Planet Fitness   77 M8          100,0   112,5      - 117,5    120             0       66,48
110 KG Clappaert   Alexander  M   KBBC               19 T3          105,8   125        135        140             142,5   75,936
110 KG Lewyllie    Jeroen         M    Fit 4 Fun     22 JR          100,3   120        127,5      135             140,5   74,6955
110 KG Samijn      Kenny          M     KBBC         22 JR          104,5   125        130        135  -----14-           73,521
110 KG Vermote     Gianni         M    Isogym        37 SR          101,2   -----130   130        130             0       0
125 KG Dechamps    Jerome    M    Castors            22 JR          123,9   125        132,5      140  --150,     -       73,164
125 KG Duflon      David          M     KBBC         35 SR          111,0   130        140        145             0       77,6185
125 KG Van West    Francis        M     KBBC         49 M2          117,6   105        -----110   110             0       58,201
125 KG Collart     Jean-Luc  M    Castors            50 M3          121,8   180        190,5      192,5           0       101,082
145 KG Goovaerts   Marc           M Elite Gym Gent   52 M3          126,6   -----150   152,5      155             160     80,4605
145 KG Rogé        Johan          M    K.B.B.C.      60 M5          130,2   135        140        145             147,5   74,6315
