﻿BDFPF - DFPFNL NATIONAAL KAMPIOENSCHAP UEQUIPPED
BK Bench Un
                                                   Op age             W Class                                                                             BW       1        2       3        4      Points
1                                                                     - 63 KG              Logier               Reinilde   F       BEL      28      SR    62,00    65       70      72,5            60,68
1                                                  1                  - 90 KG              Verweider            Justine    F       BEL      21      JR    88,00    50       55      -62,5           35,28
1                                                                     67,5 KG              Goossens             Chesney    M       BEL      26      SR    64,60    120      132,5   135      140    102,02
2                                                  1                  67,5 KG              Boland               Darren     M       BEL      43      M1    66,00    90       100     106      -110   77,78
3                                                                     67,5 KG              Vanhaverbeke         Kenny      M       BEL      34      SR    66,30    95       100     -107,5          73,77
4                                                                     67,5 KG              Rebolledo Espinoza   Cristian   M       BEL      24      SR    65,60    85       92,5    -102,5          68,91
5                                                  1                  67,5 KG              De Ridder            Pascal     M       BEL      51      M3    62,50    85       90      -97,5           70,22
6                                                  1                  67,5 KG              Van Den Broecke      Daniel     M       BEL      22      JR    65,30    70       80      -85             59,85
1                                                                     75 KG                Waroux               Dirk       M       BEL      38      SR    75,00    120      -125    125             83,06
2                                                                     75 KG                Dierckx              Liam       M       BEL      24      SR    67,90    92,5     100     105             75,81
3                                                                     75 KG                Van den Abbeele      Tim        M       BEL      31      SR    70,30    100      105     -110            73,55
4                                                  1                  75 KG                Van Laere            Tjorven    M       BEL      19      T3    74,30    90       -100    -102,5          60,25
1                                                                     82,5 KG              Sudarminto           Indra      M       BEL      28      SR    76,70    155      162,5   167,5    -173   109,38
2                                                  1                  82,5 KG              Porumbescu           Liviu      M       BEL      18      T3    78,70    117,5    120     -125            76,86
3                                                                     82,5 KG              Dhondt               Michael    M       BEL      24      SR    76,90    100      -105    107,5           70,06
4                                                  1                  82,5 KG              Abdullah             Cristian   M       BEL      20      JR    79,60    100      105     110             69,87
5                                                  1                  82,5 KG              Kerwyn               Herve      M       BEL      74      M7    81,30    97,5     103     105             65,70
1                                                  1                  90 KG                Cheaitli             Hatem      M       BEL      20      JR    89,00    165,5    -170    175             103,13
2                                                                     90 KG                De Baere             Manuel     M       BEL      24      SR    85,40    120      125     130             78,65
1                                                                     100 KG               Martiniuc            Egor       M       BEL      35      SR    97,50    155      165     170             95,29
2                                                                     100 KG               Dedeurwaerder        Kenny      M       BEL      38      SR    93,80    125      140     -145            80,04
3                                                                     100 KG               Dequidt              Benn       M       BEL      24      SR    94,00    130      -135    140             79,94
1                                                                     110 KG               Czernikiewicz        Szymon     M       BEL      28      SR    106,90   160      172,5   180      -189   97,33
2                                                                     110 KG               Tancré               Kevin      M       BEL      24      SR    103,00   140      145     150             82,13
1                                                  1                  110 KG               Secke                Jacky      M       BEL      67      M6    102,50   135      140     -145            76,79
1                                                                     125 KG               Degruyter            Bjorn      M       BEL      28      SR    112,60   130      -135    135             72,04
2                                                                     125 KG               Dejans               Bjorn      M       BEL      33      SR    118,00   120      130     135             71,39
1                                                  1                  125 KG               Duflon               David      M       BEL      44      M1    113,00   110      120     130             69,32
                                                                      NK Bench Un
                                                   Op age   W Class                                                                                       BW       1        2       3        4      Points
1                                                  1                  - 58,5 KG  Zwerts                         Rowana     F       NED      20      JR    57,30    60       -65     -65             53,65
1                                                  1                  - 80 KG   Strobos                         Kim        F       NED      24      SR    75,30    50       -52,5   -52,5           35,98
1                                                  1                  + 90 KG   De Vries                        Froukje    F       NED      49      M2    94,30    90       92,5    95,5     97,5   58,59
1                                                  1                  75 KG    De Graaf                         Jelle      M       NED      22      JR    73,90    -107,5   107,5   110,5    -115   73,95
1                                                  1                  125 KG   Zwerts      Walter               M  NED     53 M3   118,50   165     170   175      180      92,45
2                                                  1                  125 KG   Harms       Orson                M  NED     44 M1   124,20   150     160   161      -165     83,54
3                                                  1                  125 KG   Vroom       Victor               M  NED     56 M4   118,50   87,5    95    100               52,83
1                                                  1                  + 145 KG  Hamers     René                 M  NED     50 M3   156,40   172,5   180   182,5    -187,5   88,82
9 MAART 2019

BDFPF - DFPFNL NATIONAAL KAMPIOENSCHAP UEQUIPPED
Bench Un                                           Gast Lifters
Op age   W Class                                                                                                      BW       1        2      3      4       Points
1                                                  110 KG   Clark   Fraser              M  GBR               29 SR    102,20   145      -150   -150           79,62
2                                                  110 KG   Kedie   Jason               M  GBR               30 SR    110,00   140      145    -150           77,79
1                                                  1                - 80 KG   Kinkel    Birgit               F  GER   54 M3    72,70    30     35     -40              25,83
1                                                  1                60 KG    Grünberg   Michael              M  GER   52 M3    58,00    65     70     -75,5            58,95
1                                                  1                100 KG   Kling      Andreas    M   GER            52 M3    99,00    150    166    170     172,5    94,61
2                                                  1                100 KG   Pütz       David                M  GER   42 M1    90,70    100    110    -120             64,10
1                                                  1                145 KG   Tetzlaff   Martin               M  GER   47 M2    128,70   175    185    193     -195     99,45
                                                                    Doping test                                       ER
                                                                    NR                                                WR
9 MAART 2019
