WeightClassKg,Name,Division,Sex,Best3SquatKg,Best3BenchKg,Best3DeadliftKg,TotalKg,Event,Equipment,Place
52,Jeff Parker,Open,M,77.5,67.5,92.5,237.5,SBD,Single-ply,1
56,Shawn Coyne,Open,M,115,67.5,160,342.5,SBD,Single-ply,1
56,Ron Patton,Open,M,115,75,150,340,SBD,Single-ply,2
60,John Miller,Open,M,165,90,202.5,457.5,SBD,Single-ply,2
60,Mike Barnett,Open,M,165,100,185,450,SBD,Single-ply,3
60,John Hutchinson,Open,M,185,95,187.5,467.5,SBD,Single-ply,1
60,Dan Lineham,Open,M,140,110,190,440,SBD,Single-ply,4
60,Dan Black,Open,M,120,110,155,385,SBD,Single-ply,5
60,Robert Wodrasks,Open,M,,,,,SBD,Single-ply,DQ
67.5,Charles Wodrasks,Open,M,240,150,232.5,622.5,SBD,Single-ply,1
67.5,Jeff Brelsford,Open,M,185,122.5,235,542.5,SBD,Single-ply,2
67.5,Robert Robison,Open,M,185,115,225,525,SBD,Single-ply,3
67.5,Carl McGilbra,Open,M,165,135,217.5,517.5,SBD,Single-ply,4
67.5,Ed Wodrasks,Open,M,195,117.5,195,507.5,SBD,Single-ply,5
67.5,Mike Jones,Open,M,192.5,105,202.5,500,SBD,Single-ply,6
67.5,Roger Lawrence,Open,M,162.5,90,145,397.5,SBD,Single-ply,7
75,Ty Stapleton,Open,M,262.5,170,257.5,690,SBD,Single-ply,1
75,Vincent Farri,Open,M,240,167.5,237.5,645,SBD,Single-ply,2
75,Rusty Freel,Open,M,215,155,242.5,612.5,SBD,Single-ply,3
75,Stuart Ventress,Open,M,230,137.5,230,597.5,SBD,Single-ply,4
75,Kendal Galey,Open,M,210,145,232.5,587.5,SBD,Single-ply,5
75,B. Cunningham,Open,M,205,155,220,580,SBD,Single-ply,6
75,Steve Sawyer,Open,M,195,127.5,215,537.5,SBD,Single-ply,7
75,Lance Hamilton,Open,M,227.5,,,,SBD,Single-ply,DQ
75,Duane Chesmore,Open,M,,147.5,,,SBD,Single-ply,DQ
82.5,Dan Driehorst,Open,M,260,172.5,272.5,705,SBD,Single-ply,1
82.5,Don Jones,Open,M,295,127.5,245,667.5,SBD,Single-ply,2
82.5,Mark Terry,Open,M,252.5,160,247.5,660,SBD,Single-ply,3
82.5,Steve Markle,Open,M,257.5,150,235,642.5,SBD,Single-ply,4
82.5,Mike Butler,Open,M,242.5,142.5,250,635,SBD,Single-ply,5
82.5,Kevin Fanning,Open,M,220,140,205,565,SBD,Single-ply,6
82.5,R. McWatters,Masters 40-45,M,217.5,137.5,205,560,SBD,Single-ply,7
82.5,Mike Willms,Teen,M,197.5,137.5,212.5,547.5,SBD,Single-ply,9
82.5,Don Edwards,Open,M,180,120,245,545,SBD,Single-ply,10
82.5,Chris Daniel,Open,M,185,117.5,215,517.5,SBD,Single-ply,11
82.5,Rick Ferrell,Open,M,185,120,205,510,SBD,Single-ply,12
90,David Coffman,Open,M,287.5,182.5,295,765,SBD,Single-ply,1
90,John Wary,Open,M,252.5,195,265,712.5,SBD,Single-ply,2
90,Terry Grisham,Open,M,265,160,262.5,687.5,SBD,Single-ply,3
90,Jerry Crabtree,High School,M,245,132.5,215,592.5,SBD,Single-ply,4
90,Todd Kreigh,Open,M,205,130,245,580,SBD,Single-ply,5
90,Mike Baker,Open,M,312.5,,272.5,,SBD,Single-ply,DQ
90,David Eakers,Open,M,175,117.5,210,502.5,SBD,Single-ply,6
100,Merle Downs,Open,M,322.5,207.5,305,835,SBD,Single-ply,1
100,Micah Bossa,Open,M,282.5,167.5,272.5,722.5,SBD,Single-ply,2
100,Reginald Hadley,Open,M,252.5,172.5,290,715,SBD,Single-ply,3
100,Marc Nagele,Open,M,267.5,162.5,280,710,SBD,Single-ply,4
100,Chris Conarty,Open,M,250,147.5,242.5,640,SBD,Single-ply,5
100,H. Whiteley,Open,M,210,132.5,227.5,570,SBD,Single-ply,6
100,Jim Hestand,Open,M,210,125,227.5,562.5,SBD,Single-ply,7
100,Dan Berry,Open,M,332.5,190,,,SBD,Single-ply,DQ
110,Dan Burton,Open,M,367.5,205,300,872.5,SBD,Single-ply,1
110,Steve Lofton,Open,M,255,195,270,720,SBD,Single-ply,2
110,Robert Cantrell,Open,M,277.5,172.5,267.5,717.5,SBD,Single-ply,3
110,Rich Frost,Teen,M,235,145,242.5,622.5,SBD,Single-ply,4
110,Al Tanner,Open,M,215,130,230,575,SBD,Single-ply,5
110,Ray Woodson,Masters 40-45,M,185,170,,,SBD,Single-ply,DQ
110,Joe Littleton,Open,M,287.5,,,,SBD,Single-ply,DQ
125,Dennis Brooks,Open,M,367.5,235,320,922.5,SBD,Single-ply,1
125,Ray Pearce,Open,M,325,245,320,890,SBD,Single-ply,2
125,Ron Allgood,Open,M,322.5,200,295,817.5,SBD,Single-ply,3
125,Carl Schroeder,Open,M,300,205,265,770,SBD,Single-ply,4
125,Al Warner,Masters 40-45,M,207.5,140,237.5,585,SBD,Single-ply,5
125,Jack O'Brien,Open,M,80,237.5,,,SBD,Single-ply,DQ
125+,Gary Polson,Open,M,285,147.5,260,692.5,SBD,Single-ply,1
125+,Ray Smith,Open,M,212.5,182.5,185,580,SBD,Single-ply,2
44,Raelina Gibson,Open,F,90,55,107.5,252.5,SBD,Single-ply,1
48,Brenda Jennings,Open,F,112.5,37.5,135,285,SBD,Single-ply,1
48,Linda Bertrem,Open,F,105,52.5,127.5,285,SBD,Single-ply,2
48,Shannon Cook,Open,F,87.5,42.5,107.5,237.5,SBD,Single-ply,3
48,Stephanie Cook,Open,F,75,40,110,225,SBD,Single-ply,4
52,Christie Coleman,Open,F,102.5,57.5,117.5,277.5,SBD,Single-ply,1
52,Dawna Prater,Open,F,110,50,117.5,277.5,SBD,Single-ply,2
52,Rosa Crawford,Open,F,95,42.5,120,257.5,SBD,Single-ply,3
56,Robbie Scott,Open,F,110,60,135,305,SBD,Single-ply,1
56,Kimberly Crain,Open,F,110,62.5,127.5,300,SBD,Single-ply,2
56,S. Littleton,Open,F,112.5,70,115,297.5,SBD,Single-ply,3
56,Carol Dodge,Open,F,75,45,117.5,237.5,SBD,Single-ply,4
56,Janet Landers,Open,F,102.5,,,,SBD,Single-ply,DQ
60,Max Buben,Open,F,107.5,45,130,282.5,SBD,Single-ply,1
60,Karen Williams,Open,F,107.5,42.5,97.5,247.5,SBD,Single-ply,2
60,Julie Arledge,Open,F,,,,,SBD,Single-ply,DQ
75,Vikki Holland,Open,F,120,65,155,340,SBD,Single-ply,1
