Division,WeightClassKg,Place,Name,Team,BodyweightKg,Best3SquatKg,Best3BenchKg,Best3DeadliftKg,TotalKg,Equipment,Event,Sex
Boys,51.71,1,Enoch Solis,Edinburg Economedes,48.26,183.7,102.06,167.83,453.59,Single-ply,SBD,M
Boys,51.71,2,John Ortega,Mercedes,50.44,158.76,97.52,172.37,428.64,Single-ply,SBD,M
Boys,51.71,3,Erik Estrella,Brownsville Lopez,51.35,158.76,77.11,158.76,394.63,Single-ply,SBD,M
Boys,51.71,4,Jorge Guajardo,Weslaco East,51.71,136.08,68.04,154.22,358.34,Single-ply,SBD,M
Boys,51.71,5,Joe Gaytan,Donna,49.44,115.67,63.5,151.95,331.12,Single-ply,SBD,M
Boys,51.71,6,Aaron Morin,Edinburg North,48.53,95.25,61.23,120.2,276.69,Single-ply,SBD,M
Boys,51.71,7,Alfonso Noyola,San Benito,50.44,83.91,61.23,115.67,260.82,Single-ply,SBD,M
Boys,51.71,DQ,Damian Reyna,Edinburg,47.17,,,,,Single-ply,SBD,M
Boys,55.79,1,Tyrone Irizarry,Brownsville Lopez,54.52,158.76,90.72,192.78,442.25,Single-ply,SBD,M
Boys,55.79,2,Mario Perez,Weslaco,55.79,172.37,95.25,158.76,426.38,Single-ply,SBD,M
Boys,55.79,3,Andy Oceguerra,Edcouch-Elsa,55.43,158.76,70.31,170.1,399.16,Single-ply,SBD,M
Boys,55.79,4,Kevin Garcia,Edinburg Vela,55.16,140.61,95.25,149.69,385.55,Single-ply,SBD,M
Boys,55.79,5,Fred Mares,Edinburg,54.98,129.27,83.91,167.83,381.02,Single-ply,SBD,M
Boys,55.79,6,Harley Rios,Weslaco,53.16,117.93,68.04,111.13,297.1,Single-ply,SBD,M
Boys,55.79,7,Gustavo Martinez,Edinburg Vela,55.79,104.33,65.77,113.4,283.5,Single-ply,SBD,M
Boys,55.79,DQ,Samuel Garcia,Weslaco,55.79,129.27,74.84,,,Single-ply,SBD,M
Boys,59.87,1,Jose Soto,Edinburg Economedes,59.51,204.12,120.2,170.1,494.42,Single-ply,SBD,M
Boys,59.87,2,San Juan Rodriguez,Edcouch-Elsa,58.6,190.51,95.25,176.9,462.66,Single-ply,SBD,M
Boys,59.87,3,Brian Garza,San Benito,59.24,167.83,92.99,165.56,426.38,Single-ply,SBD,M
Boys,59.87,4,Jonathon Garcia,Brownsville Lopez,59.78,147.42,74.84,161.03,383.29,Single-ply,SBD,M
Boys,59.87,5,Nick Castillo,San Benito,57.33,124.74,79.38,154.22,358.34,Single-ply,SBD,M
Boys,59.87,6,Gabriel Perez,Donna North,58.97,124.74,70.31,161.03,356.07,Single-ply,SBD,M
Boys,59.87,7,Joseph Navarro,Edinburg Vela,59.51,122.47,79.38,136.08,337.93,Single-ply,SBD,M
Boys,59.87,8,Toni Martines,Edinburg Vela,58.88,124.74,61.23,145.15,331.12,Single-ply,SBD,M
Boys,59.87,9,Maxx Padron,Brownsville Pace,59.06,113.4,61.23,145.15,319.78,Single-ply,SBD,M
Boys,59.87,DQ,Justin Berner,Edinburg North,59.87,195.04,,,,Single-ply,SBD,M
Boys,59.87,DQ,Jacob Dena,Weslaco,59.87,,,,,Single-ply,SBD,M
Boys,59.87,DQ,Fernando Martinez #2,Weslaco,59.42,195.04,,,,Single-ply,SBD,M
Boys,67.13,1,Javi Castro,Brownsville Lopez,66.68,226.8,124.74,206.38,557.92,Single-ply,SBD,M
Boys,67.13,2,Jose Serna,Weslaco East,66.22,219.99,127.01,208.65,555.65,Single-ply,SBD,M
Boys,67.13,3,Leo Daniel Lozano,Weslaco,66.32,197.31,145.15,183.7,526.17,Single-ply,SBD,M
Boys,67.13,4,Eddie Luna,Mercedes,66.13,192.78,111.13,197.31,501.22,Single-ply,SBD,M
Boys,67.13,5,Raven Figueroa,Weslaco East,66.22,165.56,117.93,201.85,485.34,Single-ply,SBD,M
Boys,67.13,6,Mario Mancera,Edinburg Economedes,65.32,167.83,95.25,172.37,435.45,Single-ply,SBD,M
Boys,67.13,7,Jon Animas,Weslaco East,65.32,158.76,86.18,188.24,433.18,Single-ply,SBD,M
Boys,67.13,8,Robert Rivera,La Villa,66.68,174.63,86.18,158.76,419.57,Single-ply,SBD,M
Boys,67.13,9,Jaryd Amaro,PSJA Memorial,60.96,167.83,88.45,151.95,408.23,Single-ply,SBD,M
Boys,67.13,10,Angel Ramirez,Brownsville Lopez,61.69,147.42,83.91,174.63,405.97,Single-ply,SBD,M
Boys,67.13,11,Robert Solis,Edinburg Economedes,66.13,145.15,77.11,183.7,405.97,Single-ply,SBD,M
Boys,67.13,12,Garbriel Gomez,San Benito,66.68,163.29,83.91,158.76,405.97,Single-ply,SBD,M
Boys,67.13,13,Daniel Acuna #2,Donna North,62.87,151.95,72.57,158.76,383.29,Single-ply,SBD,M
Boys,67.13,14,Isai Del Rosal,Edinburg North,63.96,124.74,83.91,142.88,351.53,Single-ply,SBD,M
Boys,67.13,15,Andrew Aguilar,Harlingen,64.23,122.47,79.38,149.69,351.53,Single-ply,SBD,M
Boys,67.13,16,Jerry Reyes,La Villa,64.41,136.08,86.18,117.93,340.19,Single-ply,SBD,M
Boys,67.13,17,Edger Arecha,Edinburg Vela,67.13,129.27,70.31,138.35,337.93,Single-ply,SBD,M
Boys,67.13,18,Wilmer Garcia,Donna North,63.23,124.74,68.04,102.06,294.84,Single-ply,SBD,M
Boys,67.13,DQ,Corbin Garza,Los Fresnos,64.77,210.92,111.13,,,Single-ply,SBD,M
Boys,67.13,DQ,Jose Salinas,Brownsville Pace,63.5,,,,,Single-ply,SBD,M
Boys,74.84,1,Christian Gamez,Brownsville Lopez,72.94,265.35,145.15,219.99,630.49,Single-ply,SBD,M
Boys,74.84,2,Christian Avila,Weslaco East,73.12,226.8,108.86,238.14,573.79,Single-ply,SBD,M
Boys,74.84,3,Matthew Alvarado,Weslaco,73.57,217.72,124.74,213.19,555.65,Single-ply,SBD,M
Boys,74.84,4,Darius Hernandez,La Feria,74.21,213.19,117.93,217.72,548.85,Single-ply,SBD,M
Boys,74.84,5,Anthony Elvir,Los Fresnos,73.66,183.7,120.2,219.99,523.9,Single-ply,SBD,M
Boys,74.84,6,Jesse Contreras,Edcouch-Elsa,74.84,204.12,106.59,204.12,514.83,Single-ply,SBD,M
Boys,74.84,7,Jermaine Olivarez,Edinburg Vela,73.94,190.51,102.06,195.04,487.61,Single-ply,SBD,M
Boys,74.84,8,Meshach Vasquez,Mercedes,70.76,179.17,124.74,174.63,478.54,Single-ply,SBD,M
Boys,74.84,9,Adam Garza,Donna North,73.39,174.63,106.59,188.24,469.47,Single-ply,SBD,M
Boys,74.84,10,Jose Guerra,Weslaco East,70.76,165.56,108.86,192.78,467.2,Single-ply,SBD,M
Boys,74.84,11,Bobby Flores,Edinburg,74.12,181.44,102.06,174.63,458.13,Single-ply,SBD,M
Boys,74.84,12,Joel Hernandez #1,Brownsville Pace,73.94,165.56,99.79,183.7,449.06,Single-ply,SBD,M
Boys,74.84,13,Rayden Berry,Harlingen,74.84,154.22,102.06,183.7,439.98,Single-ply,SBD,M
Boys,74.84,14,Venacio Flores,Harlingen,74.84,151.95,106.59,179.17,437.72,Single-ply,SBD,M
Boys,74.84,15,Tony Anzaldua,Mercedes,68.49,142.88,102.06,142.88,387.82,Single-ply,SBD,M
Boys,74.84,16,Malachai Ortega,Edinburg North,71.03,124.74,88.45,154.22,367.41,Single-ply,SBD,M
Boys,74.84,17,Evan Sanchez,La Feria,73.57,122.47,61.23,133.81,317.51,Single-ply,SBD,M
Boys,74.84,18,Gracia Enrique,Pharr Valley View,74.57,124.74,70.31,122.47,317.51,Single-ply,SBD,M
Boys,74.84,DQ,Alejandro Cortez,Edinburg North,74.48,222.26,,,,Single-ply,SBD,M
Boys,82.1,1,Imanol Ordonez,Weslaco East,82.1,244.94,176.9,278.96,700.8,Single-ply,SBD,M
Boys,82.1,2,Alonso Requena,Los Fresnos,82.1,219.99,136.08,240.4,596.47,Single-ply,SBD,M
Boys,82.1,3,Imanol Rocha,Edinburg Vela,79.74,215.46,133.81,190.51,539.77,Single-ply,SBD,M
Boys,82.1,4,Brandon Adame,Mercedes,79.56,210.92,111.13,215.46,537.51,Single-ply,SBD,M
Boys,82.1,5,Daniel Garcia #9,San Benito,80.56,195.04,133.81,195.04,523.9,Single-ply,SBD,M
Boys,82.1,6,Carbon Hendrick,Harlingen,80.92,172.37,120.2,204.12,496.68,Single-ply,SBD,M
Boys,82.1,7,Gerardo Garza,Brownsville Pace,81.74,183.7,124.74,183.7,492.15,Single-ply,SBD,M
Boys,82.1,8,Justin Trevino,Donna North,78.02,172.37,104.33,190.51,467.2,Single-ply,SBD,M
Boys,82.1,9,Felipe Ortega,La Villa,80.2,192.78,106.59,161.03,460.4,Single-ply,SBD,M
Boys,82.1,10,Carlos Olivo,Edinburg North,80.29,158.76,108.86,170.1,437.72,Single-ply,SBD,M
Boys,82.1,11,Leo Martinez,Harlingen,82.1,142.88,102.06,190.51,435.45,Single-ply,SBD,M
Boys,82.1,12,Domingo Rasse,Donna North,81.74,170.1,86.18,158.76,415.04,Single-ply,SBD,M
Boys,82.1,13,Michael Zamora,Pharr Valley View,78.47,149.69,88.45,172.37,410.5,Single-ply,SBD,M
Boys,82.1,14,Teddie Lozano,Edinburg North,80.92,117.93,97.52,167.83,383.29,Single-ply,SBD,M
Boys,82.1,15,Humberto Martinez,Donna North,77.84,124.74,74.84,163.29,362.87,Single-ply,SBD,M
Boys,82.1,16,Michael Reyes,PSJA Memorial,80.83,124.74,63.5,127.01,315.25,Single-ply,SBD,M
Boys,82.1,17,Pablo Garza,Edinburg Vela,78.56,102.06,61.23,115.67,278.96,Single-ply,SBD,M
Boys,82.1,DQ,Cristian Maldonado,Los Fresnos,82.1,240.4,151.95,,,Single-ply,SBD,M
Boys,82.1,DQ,Christopher Espinoza,Brownsville Pace,79.83,226.8,,,,Single-ply,SBD,M
Boys,82.1,DQ,Tony Gil,Edcouch-Elsa,82.1,215.46,,,,Single-ply,SBD,M
Boys,82.1,DQ,Joshua Sanchez,Edinburg Economedes,78.38,215.46,,,,Single-ply,SBD,M
Boys,82.1,DQ,Charles Juarez,Weslaco,82.01,192.78,,,,Single-ply,SBD,M
Boys,89.81,1,Fred Cardenas,Weslaco East,89.81,244.94,179.17,272.16,696.26,Single-ply,SBD,M
Boys,89.81,2,Jose Guzman,Donna,87.91,267.62,154.22,263.08,684.92,Single-ply,SBD,M
Boys,89.81,3,Mario Reyna,Edinburg Economedes,89.72,281.23,154.22,242.67,678.12,Single-ply,SBD,M
Boys,89.81,4,Jonathon Buentello,Brownsville Lopez,89.36,265.35,133.81,256.28,655.44,Single-ply,SBD,M
Boys,89.81,5,Simon Fernandez,Pharr Valley View,89.09,254.01,154.22,240.4,648.64,Single-ply,SBD,M
Boys,89.81,6,Pablo Iracheta,Brownsville Pace,88.54,247.21,158.76,235.87,641.83,Single-ply,SBD,M
Boys,89.81,7,Jacob Perez #4,Edcouch-Elsa,88.54,244.94,124.74,242.67,612.35,Single-ply,SBD,M
Boys,89.81,8,Isaac de Anda,Edcouch-Elsa,88.27,242.67,122.47,231.33,596.47,Single-ply,SBD,M
Boys,89.81,9,Carlos Arrellano,Brownsville Lopez,88.36,235.87,111.13,226.8,573.79,Single-ply,SBD,M
Boys,89.81,10,Avishai Dickerson,La Feria,83.64,219.99,127.01,217.72,564.72,Single-ply,SBD,M
Boys,89.81,11,Larry Strickland,Weslaco,85.28,235.87,102.06,222.26,560.19,Single-ply,SBD,M
Boys,89.81,12,Robert Suubillo,Edcouch-Elsa,88.72,201.85,129.27,213.19,544.31,Single-ply,SBD,M
Boys,89.81,13,Erick Rangel,La Feria,89.27,188.24,120.2,174.63,483.08,Single-ply,SBD,M
Boys,89.81,14,Adan Rodriguez,Edinburg Economedes,88.72,183.7,97.52,188.24,469.47,Single-ply,SBD,M
Boys,89.81,15,Luis Mireles,PSJA Memorial,88.99,185.97,113.4,170.1,469.47,Single-ply,SBD,M
Boys,89.81,16,Gustavo Vasquez,Donna North,83.64,165.56,106.59,183.7,455.86,Single-ply,SBD,M
Boys,89.81,17,Carlos Ortiz #3,Harlingen,88.72,149.69,88.45,183.7,421.84,Single-ply,SBD,M
Boys,89.81,18,Isaiah Cepeda,Edinburg North,86.27,142.88,102.06,142.88,387.82,Single-ply,SBD,M
Boys,89.81,19,Ivan Gonzalez,Edinburg Vela,87.54,127.01,120.2,129.27,376.48,Single-ply,SBD,M
Boys,89.81,DQ,Noah Martinez #4,Edinburg,88.63,235.87,115.67,,,Single-ply,SBD,M
Boys,89.81,DQ,Javi Garcia,Brownsville Pace,89.81,204.12,,,,Single-ply,SBD,M
Boys,99.79,1,Matthew Ortiz,Los Fresnos,93.89,265.35,151.95,240.4,657.71,Single-ply,SBD,M
Boys,99.79,2,Frank Coronado,Edinburg,96.62,244.94,145.15,247.21,637.3,Single-ply,SBD,M
Boys,99.79,3,Ryan Perales,Donna,93.53,249.48,163.29,206.38,619.15,Single-ply,SBD,M
Boys,99.79,4,Victor Luna,La Feria,92.08,242.67,138.35,206.38,587.4,Single-ply,SBD,M
Boys,99.79,5,Antonio Banda,Donna,98.7,240.4,142.88,199.58,582.87,Single-ply,SBD,M
Boys,99.79,6,Juan Mendoza #4,Edinburg,96.98,213.19,136.08,206.38,555.65,Single-ply,SBD,M
Boys,99.79,7,James Rodriguez,Los Fresnos,99.52,213.19,122.47,215.46,551.11,Single-ply,SBD,M
Boys,99.79,8,Brando Galvan,Weslaco East,90.72,215.46,117.93,215.46,548.85,Single-ply,SBD,M
Boys,99.79,9,Anibal Gomez,Edinburg Economedes,98.16,204.12,127.01,215.46,546.58,Single-ply,SBD,M
Boys,99.79,10,Matthew Cortinas,Brownsville Lopez,99.43,192.78,129.27,206.38,528.44,Single-ply,SBD,M
Boys,99.79,11,Bryan Lopez,San Benito,99.79,206.38,129.27,190.51,526.17,Single-ply,SBD,M
Boys,99.79,12,Erasmo Garces,Weslaco,92.8,192.78,113.4,213.19,519.36,Single-ply,SBD,M
Boys,99.79,13,Brandon Pena,Edinburg Economedes,90.26,219.99,92.99,192.78,505.76,Single-ply,SBD,M
Boys,99.79,14,Irvin Castro,La Feria,92.62,206.38,131.54,167.83,505.76,Single-ply,SBD,M
Boys,99.79,15,Esteban Guerrero,Donna North,90.9,199.58,102.06,197.31,498.95,Single-ply,SBD,M
Boys,99.79,16,Richard Perales,Harlingen,94.53,181.44,106.59,197.31,485.34,Single-ply,SBD,M
Boys,99.79,17,Nathan Morales,La Feria,91.53,170.1,117.93,183.7,471.74,Single-ply,SBD,M
Boys,99.79,18,Humberto Martinez,Edinburg North,91.81,183.7,102.06,183.7,469.47,Single-ply,SBD,M
Boys,99.79,19,Victor Martinez,PSJA Memorial,99.34,170.1,90.72,190.51,451.32,Single-ply,SBD,M
Boys,99.79,20,Jaime Quintero,PSJA Memorial,91.63,108.86,90.72,111.13,310.71,Single-ply,SBD,M
Boys,99.79,DQ,Noe Castillo,Weslaco East,97.07,192.78,117.93,,,Single-ply,SBD,M
Boys,99.79,DQ,Christopher Davila,La Feria,94.98,111.13,131.54,,,Single-ply,SBD,M
Boys,99.79,DQ,Nate Vallejo,Edcouch-Elsa,98.07,281.23,,,,Single-ply,SBD,M
Boys,109.77,1,Cody Alvarado,Edcouch-Elsa,108.86,317.51,195.04,265.35,777.91,Single-ply,SBD,M
Boys,109.77,2,Joey Ramirez,La Villa,107.95,306.17,174.63,199.58,680.39,Single-ply,SBD,M
Boys,109.77,3,Lazaro Patlan,Edinburg,107.14,269.89,163.29,224.53,657.71,Single-ply,SBD,M
Boys,109.77,4,Gabriel Salinas,Donna,106.41,294.84,113.4,226.8,635.03,Single-ply,SBD,M
Boys,109.77,5,Rogelio Randa,Donna,102.87,249.48,142.88,226.8,619.15,Single-ply,SBD,M
Boys,109.77,6,Pablo Rodriguez,Edinburg North,106.59,231.33,151.95,208.65,591.94,Single-ply,SBD,M
Boys,109.77,7,Agustin Villegas,Edinburg Economedes,104.33,217.72,131.54,229.06,578.33,Single-ply,SBD,M
Boys,109.77,8,Joel Lopez,San Benito,108.77,240.4,133.81,204.12,578.33,Single-ply,SBD,M
Boys,109.77,9,Joseph Guerra,Edinburg Economedes,108.32,215.46,133.81,217.72,566.99,Single-ply,SBD,M
Boys,109.77,10,Roland Morales,Weslaco,107.41,215.46,136.08,204.12,555.65,Single-ply,SBD,M
Boys,109.77,11,Justus Mendoza,Donna,108.41,226.8,142.88,183.7,553.38,Single-ply,SBD,M
Boys,109.77,12,Jiovani Naveja,Weslaco,107.41,213.19,136.08,192.78,542.04,Single-ply,SBD,M
Boys,109.77,13,Ricardo Martinez #4,Donna North,109.04,183.7,142.88,210.92,537.51,Single-ply,SBD,M
Boys,109.77,14,Arturo Garcia,Brownsville Pace,103.87,215.46,131.54,161.03,508.02,Single-ply,SBD,M
Boys,109.77,15,Noah Figueroa,Harlingen,100.43,183.7,97.52,188.24,469.47,Single-ply,SBD,M
Boys,109.77,16,Carlos Olmedo #2,Mercedes,102.06,183.7,99.79,185.97,469.47,Single-ply,SBD,M
Boys,109.77,DQ,Jacob Banda,Weslaco East,109.32,,,,,Single-ply,SBD,M
Boys,109.77,DQ,Derek Guevara,Los Fresnos,107.05,233.6,149.69,,,Single-ply,SBD,M
Boys,109.77,DQ,Angel Gutierrez,Pharr Valley View,107.95,,,,,Single-ply,SBD,M
Boys,109.77,DQ,Saturnino Cantu,La Feria,107.5,181.44,,,,Single-ply,SBD,M
Boys,124.74,1,Lorenzo Villarreal,Los Fresnos,119.02,272.16,210.92,258.55,741.62,Single-ply,SBD,M
Boys,124.74,2,Isai Martinez,Weslaco East,123.38,272.16,201.85,244.94,718.94,Single-ply,SBD,M
Boys,124.74,3,Imanol Rodriguez,Edcouch-Elsa,118.84,294.84,181.44,226.8,703.07,Single-ply,SBD,M
Boys,124.74,4,Christopher Vargas,San Benito,123.2,272.16,165.56,254.01,691.73,Single-ply,SBD,M
Boys,124.74,5,Adrian Fuentes,Weslaco,114.94,272.16,165.56,240.4,678.12,Single-ply,SBD,M
Boys,124.74,6,Shayne Hernandez,Edinburg,115.76,251.74,156.49,242.67,650.91,Single-ply,SBD,M
Boys,124.74,7,JR Salinas,Mercedes,114.21,260.82,174.63,206.38,641.83,Single-ply,SBD,M
Boys,124.74,8,Kevin Lopez,PSJA Memorial,121.38,267.62,151.95,215.46,635.03,Single-ply,SBD,M
Boys,124.74,9,Luis Trevino,Edinburg,115.21,267.62,138.35,206.38,612.35,Single-ply,SBD,M
Boys,124.74,10,Jose Garcia #25,Brownsville Lopez,114.76,256.28,138.35,215.46,610.08,Single-ply,SBD,M
Boys,124.74,11,Marco Cantu,San Benito,112.67,215.46,147.42,183.7,546.58,Single-ply,SBD,M
Boys,124.74,12,Noah Cruz,Harlingen,111.04,210.92,106.59,215.46,532.97,Single-ply,SBD,M
Boys,124.74,DQ,Javy Soriano,Los Fresnos,117.93,265.35,,,,Single-ply,SBD,M
Boys,124.74,DQ,Nick Riojas,Donna,112.22,249.48,,,,Single-ply,SBD,M
Boys,124.74,DQ,Raul Martinez,Weslaco,122.38,251.74,,,,Single-ply,SBD,M
Boys,124.74+,1,Joel Chapa,Brownsville Lopez,152.41,340.19,163.29,249.48,752.96,Single-ply,SBD,M
Boys,124.74+,2,Sam Perez,Weslaco,127.01,278.96,185.97,242.67,707.6,Single-ply,SBD,M
Boys,124.74+,3,Joshua Vaquera,PSJA Memorial,150.59,290.3,170.1,238.14,698.53,Single-ply,SBD,M
Boys,124.74+,4,Lee Roy Carrizalez,PSJA Memorial,128.73,283.5,163.29,222.26,669.05,Single-ply,SBD,M
Boys,124.74+,5,Carlos Pineda,Donna,153.22,258.55,127.01,233.6,619.15,Single-ply,SBD,M
Boys,124.74+,6,Jason Vasquez,Edcouch-Elsa,129.73,260.82,129.27,215.46,605.55,Single-ply,SBD,M
Boys,124.74+,7,Triston Rosales,La Feria,129.27,249.48,127.01,188.24,564.72,Single-ply,SBD,M
Boys,124.74+,8,Genaro Perez,Edinburg,167.1,183.7,138.35,190.51,512.56,Single-ply,SBD,M
Boys,124.74+,9,Fernando Escamilla,Harlingen,130,188.24,102.06,192.78,483.08,Single-ply,SBD,M
Boys,124.74+,10,Edwardo Rosas,Donna,153.31,192.78,92.99,183.7,469.47,Single-ply,SBD,M
Boys,124.74+,DQ,Christopher Rivera,Weslaco East,130.18,208.65,,,,Single-ply,SBD,M
